…
Counts of each county (and other second-level sub-regions) represented
in the data.

``` r
raw_us_data %>%
  count(sub_region_1, sub_region_2)
```

    ## # A tibble: 2,879 x 3
    ##    sub_region_1 sub_region_2        n
    ##    <chr>        <chr>           <int>
    ##  1 Alabama      Autauga County     83
    ##  2 Alabama      Baldwin County     83
    ##  3 Alabama      Barbour County     83
    ##  4 Alabama      Bibb County        83
    ##  5 Alabama      Blount County      83
    ##  6 Alabama      Bullock County     75
    ##  7 Alabama      Butler County      83
    ##  8 Alabama      Calhoun County     83
    ##  9 Alabama      Chambers County    83
    ## 10 Alabama      Cherokee County    83
    ## # … with 2,869 more rows

Date ranges included in the data for each state.

``` r
raw_us_data %>%
  group_by(sub_region_1) %>%
  summarize(
    min = min(date),
    max = max(date)
  )
```

    ## # A tibble: 52 x 3
    ##    sub_region_1         min        max       
    ##    <chr>                <date>     <date>    
    ##  1 Alabama              2020-02-15 2020-05-07
    ##  2 Alaska               2020-02-15 2020-05-07
    ##  3 Arizona              2020-02-15 2020-05-07
    ##  4 Arkansas             2020-02-15 2020-05-07
    ##  5 California           2020-02-15 2020-05-07
    ##  6 Colorado             2020-02-15 2020-05-07
    ##  7 Connecticut          2020-02-15 2020-05-07
    ##  8 Delaware             2020-02-15 2020-05-07
    ##  9 District of Columbia 2020-02-15 2020-05-07
    ## 10 Florida              2020-02-15 2020-05-07
    ## # … with 42 more rows
…
